Data Quality Reporting and Validation for CC-HIC • inspectEHR
…
library(inspectEHR); library(dbplyr)

# Synthetic database ships with inspectEHR
ctn <- connect(sqlite_file = "./data-raw/synthetic_db.sqlite3")

# Extract static variables. Rename on the fly.
dtb <- extract_demographics(
  connection = ctn,
  code_names = c("NIHR_HIC_ICU_0017"),
  rename = c("height")
)

head(dtb)
#> # A tibble: 6 x 2
#>   episode_id height
#>        <int>  <dbl>
#> 1          1   182.
#> 2          2   188.
#> 3          3   215.
#> 4          4   172.
#> 5          5   168.
#> # … with 1 more row

# Extract time varying variables. Rename on the fly.
# Pull out to any arbitrary temporal resolution and custom define the
# behaviour for information recorded at resolution higher than you are sampling
ltb <- extract_timevarying(
  connection = ctn,
  code_names =  "NIHR_HIC_ICU_0108", rename = "hr"
)
#> [1] "0.0056 hours to process"

head(ltb)
#> # A tibble: 6 x 3
#>    time    hr episode_id
#>   <dbl> <int>      <int>
#> 1     0    95          1
#> 2     1    77          1
#> 3     2    75          1
#> 4     3    85          1
#> 5     4    86          1
#> # … with 1 more row
…
